{
  "DA Warner": {
    "2009": "123.48",
    "2010": "146.03",
    "2011": "117.82",
    "2012": "162.58",
    "2013": "126.54",
    "2014": "142.32",
    "2015": "155.62",
    "2016": "151.25",
    "2017": "141.52"
  },
  "S Dhawan": {
    "2008": "115.25",
    "2009": "88.89",
    "2010": "110.65",
    "2011": "129.45",
    "2012": "129.68",
    "2013": "122.92",
    "2014": "117.67",
    "2015": "121.75",
    "2016": "116.39",
    "2017": "127.81"
  },
  "MC Henriques": {
    "2009": "95.00",
    "2010": "220.00",
    "2013": "133.06",
    "2014": "64.29",
    "2015": "134.76",
    "2016": "115.92",
    "2017": "137.13"
  },
  "Yuvraj Singh": {
    "2008": "162.50",
    "2009": "115.65",
    "2010": "129.00",
    "2011": "131.42",
    "2013": "125.26",
    "2014": "135.04",
    "2015": "118.18",
    "2016": "131.84",
    "2017": "140.57"
  },
  "DJ Hooda": {
    "2015": "158.95",
    "2016": "115.97",
    "2017": "150.98"
  },
  "BCJ Cutting": {
    "2014": "133.33",
    "2016": "191.18",
    "2017": "200.00"
  },
  "CH Gayle": {
    "2009": "124.32",
    "2010": "158.47",
    "2011": "181.87",
    "2012": "159.65",
    "2013": "154.41",
    "2014": "106.52",
    "2015": "148.04",
    "2016": "151.33",
    "2017": "123.60"
  },
  "Mandeep Singh": {
    "2010": "36.36",
    "2011": "114.63",
    "2012": "126.39",
    "2013": "116.59",
    "2014": "96.00",
    "2015": "157.00",
    "2017": "106.82"
  },
  "TM Head": {
    "2016": "135.90",
    "2017": "139.25"
  },
  "KM Jadhav": {
    "2010": "135.71",
    "2011": "78.26",
    "2013": "120.33",
    "2014": "147.47",
    "2015": "135.00",
    "2016": "122.58",
    "2017": "145.60"
  },
  "SR Watson": {
    "2008": "152.12",
    "2010": "160.18",
    "2011": "130.56",
    "2012": "151.79",
    "2013": "143.39",
    "2014": "123.74",
    "2015": "133.46",
    "2016": "133.58",
    "2017": "90.91"
  },
  "Sachin Baby": {
    "2013": "42.86",
    "2016": "153.25",
    "2017": "107.14"
  },
  "STR Binny": {
    "2010": "160.00",
    "2011": "119.35",
    "2012": "134.33",
    "2013": "147.24",
    "2014": "101.65",
    "2015": "112.31",
    "2016": "161.54",
    "2017": "102.67"
  },
  "S Aravind": {
    "2011": "162.50",
    "2012": "175.00",
    "2015": 0,
    "2017": "82.05"
  },
  "YS Chahal": {
    "2014": 0,
    "2015": 0,
    "2017": "52.00"
  },
  "TS Mills": {
    "2017": "80.00"
  },
  "A Choudhary": {
    "2017": "100.00"
  },
  "PA Patel": {
    "2008": "100.68",
    "2009": "112.70",
    "2010": "91.14",
    "2011": "110.99",
    "2012": "117.68",
    "2013": "115.29",
    "2014": "110.81",
    "2015": "137.80",
    "2016": "117.22",
    "2017": "135.27"
  },
  "JC Buttler": {
    "2016": "138.80",
    "2017": "150.56"
  },
  "RG Sharma": {
    "2008": "147.78",
    "2009": "113.10",
    "2010": "134.33",
    "2011": "125.25",
    "2012": "126.69",
    "2013": "130.39",
    "2014": "129.14",
    "2015": "144.74",
    "2016": "133.06",
    "2017": "122.43"
  },
  "N Rana": {
    "2016": "135.14",
    "2017": "126.72"
  },
  "AT Rayudu": {
    "2010": "145.08",
    "2011": "112.89",
    "2012": "132.14",
    "2013": "115.28",
    "2014": "125.87",
    "2015": "146.35",
    "2016": "120.58",
    "2017": "116.88"
  },
  "KH Pandya": {
    "2016": "191.13",
    "2017": "135.96"
  },
  "KA Pollard": {
    "2010": "186.99",
    "2011": "109.85",
    "2012": "139.24",
    "2013": "148.92",
    "2014": "134.65",
    "2015": "162.75",
    "2016": "144.44",
    "2017": "141.73"
  },
  "HH Pandya": {
    "2015": "183.33",
    "2016": "69.84",
    "2017": "158.23"
  },
  "TG Southee": {
    "2014": "100.00",
    "2015": "144.44",
    "2016": "166.67",
    "2017": "300.00"
  },
  "AM Rahane": {
    "2008": "23.53",
    "2009": "118.18",
    "2011": "122.45",
    "2012": "129.33",
    "2013": "106.55",
    "2014": "116.49",
    "2015": "131.07",
    "2016": "126.72",
    "2017": "118.32"
  },
  "MA Agarwal": {
    "2011": "117.09",
    "2012": "143.31",
    "2013": "108.06",
    "2014": "126.37",
    "2015": "121.02",
    "2016": "108.00",
    "2017": "84.62"
  },
  "SPD Smith": {
    "2012": "133.59",
    "2013": "120.45",
    "2014": "130.36",
    "2015": "132.73",
    "2016": "154.29",
    "2017": "122.28"
  },
  "BA Stokes": {
    "2017": "143.64"
  },
  "MS Dhoni": {
    "2008": "133.55",
    "2009": "127.20",
    "2010": "136.67",
    "2011": "159.59",
    "2012": "128.73",
    "2013": "163.57",
    "2014": "150.20",
    "2015": "121.97",
    "2016": "135.24",
    "2017": "116.06"
  },
  "JJ Roy": {
    "2017": "151.28"
  },
  "BB McCullum": {
    "2008": "206.59",
    "2009": "117.80",
    "2010": "104.59",
    "2011": "129.04",
    "2012": "102.12",
    "2013": "85.71",
    "2014": "121.62",
    "2015": "156.16",
    "2016": "135.11",
    "2017": "145.66"
  },
  "SK Raina": {
    "2008": "142.86",
    "2009": "141.50",
    "2010": "142.86",
    "2011": "135.29",
    "2012": "135.80",
    "2013": "150.00",
    "2014": "145.38",
    "2015": "123.43",
    "2016": "127.88",
    "2017": "144.55"
  },
  "AJ Finch": {
    "2010": "100.00",
    "2011": "102.17",
    "2012": "107.84",
    "2013": "135.82",
    "2014": "118.01",
    "2015": "69.70",
    "2016": "131.99",
    "2017": "165.19"
  },
  "KD Karthik": {
    "2008": "135.51",
    "2009": "132.72",
    "2010": "117.80",
    "2011": "128.18",
    "2012": "112.26",
    "2013": "123.47",
    "2014": "125.97",
    "2015": "120.51",
    "2016": "125.94",
    "2017": "138.91"
  },
  "G Gambhir": {
    "2008": "140.74",
    "2009": "102.90",
    "2010": "127.65",
    "2011": "118.79",
    "2012": "143.55",
    "2013": "118.71",
    "2014": "111.72",
    "2015": "117.63",
    "2016": "121.90",
    "2017": "128.09"
  },
  "CA Lynn": {
    "2012": "66.67",
    "2014": "118.37",
    "2016": "113.64",
    "2017": "183.13"
  },
  "MK Tiwary": {
    "2008": "122.35",
    "2009": "69.23",
    "2010": "127.57",
    "2011": "109.94",
    "2012": "105.69",
    "2013": "104.29",
    "2014": "128.81",
    "2015": "101.79",
    "2017": "136.32"
  },
  "DT Christian": {
    "2011": "116.56",
    "2012": "122.88",
    "2013": "40.00",
    "2017": "164.58"
  },
  "HM Amla": {
    "2016": "131.93",
    "2017": "146.15"
  },
  "M Vohra": {
    "2013": "137.61",
    "2014": "139.66",
    "2015": "101.23",
    "2016": "122.90",
    "2017": "144.30"
  },
  "WP Saha": {
    "2008": "133.61",
    "2009": "175.61",
    "2010": "126.42",
    "2011": "107.94",
    "2012": "42.86",
    "2013": "125.00",
    "2014": "145.38",
    "2015": "126.40",
    "2016": "127.36",
    "2017": "124.32"
  },
  "AR Patel": {
    "2014": "103.33",
    "2015": "118.39",
    "2016": "144.16",
    "2017": "140.37"
  },
  "GJ Maxwell": {
    "2012": "54.55",
    "2013": "133.33",
    "2014": "189.69",
    "2015": "129.20",
    "2016": "144.35",
    "2017": "172.32"
  },
  "DA Miller": {
    "2012": "130.67",
    "2013": "164.82",
    "2014": "149.16",
    "2015": "133.71",
    "2016": "120.77",
    "2017": "98.70"
  },
  "Vishnu Vinod": {
    "2017": "72.00"
  },
  "Iqbal Abdulla": {
    "2008": "50.00",
    "2010": 0,
    "2011": "125.00",
    "2012": "66.67",
    "2013": "57.14",
    "2015": "117.65",
    "2016": "138.46",
    "2017": "83.33"
  },
  "P Negi": {
    "2012": "124.14",
    "2015": "159.72",
    "2016": "96.61",
    "2017": "130.91"
  },
  "AP Tare": {
    "2010": "138.89",
    "2013": "146.43",
    "2014": "129.90",
    "2015": "82.35",
    "2016": "53.33",
    "2017": "81.82"
  },
  "SW Billings": {
    "2016": "139.68",
    "2017": "135.29"
  },
  "KK Nair": {
    "2013": "75.00",
    "2014": "142.24",
    "2015": "124.83",
    "2016": "119.32",
    "2017": "124.89"
  },
  "SV Samson": {
    "2013": "115.73",
    "2014": "124.18",
    "2015": "125.93",
    "2016": "112.79",
    "2017": "140.81"
  },
  "RR Pant": {
    "2016": "130.26",
    "2017": "163.93"
  },
  "CH Morris": {
    "2013": "87.50",
    "2015": "155.56",
    "2016": "178.90",
    "2017": "164.52"
  },
  "CR Brathwaite": {
    "2016": "218.42",
    "2017": "85.71"
  },
  "PJ Cummins": {
    "2015": "0.00",
    "2017": "148.08"
  },
  "A Mishra": {
    "2008": "88.10",
    "2009": "130.00",
    "2010": "76.00",
    "2011": "138.78",
    "2012": "80.00",
    "2013": "93.68",
    "2014": "57.14",
    "2015": "66.67",
    "2016": "28.57",
    "2017": "96.08"
  },
  "S Nadeem": {
    "2011": 0,
    "2012": "0.00",
    "2013": "51.85",
    "2014": "36.84",
    "2015": "28.57",
    "2016": "20.00",
    "2017": "25.00"
  },
  "Z Khan": {
    "2008": "78.57",
    "2009": "72.73",
    "2010": "184.62",
    "2011": "87.50",
    "2012": "70.59",
    "2014": "114.29",
    "2016": "46.15",
    "2017": "25.00"
  },
  "DR Smith": {
    "2008": "112.50",
    "2009": "164.12",
    "2010": "88.00",
    "2012": "160.82",
    "2013": "122.94",
    "2014": "136.14",
    "2015": "120.54",
    "2016": "145.45",
    "2017": "153.55"
  },
  "DS Kulkarni": {
    "2008": "12.50",
    "2009": "52.94",
    "2011": "50.00",
    "2012": "200.00",
    "2014": "140.00",
    "2015": "36.36",
    "2016": "168.75",
    "2017": 0
  },
  "P Kumar": {
    "2008": "114.29",
    "2009": "141.30",
    "2010": "50.00",
    "2011": "87.10",
    "2012": "120.69",
    "2013": "118.42",
    "2014": "50.00",
    "2015": "68.00",
    "2016": "92.31",
    "2017": "87.50"
  },
  "Basil Thampi": {
    "2017": "100.00"
  },
  "RV Uthappa": {
    "2008": "115.33",
    "2009": "102.94",
    "2010": "171.56",
    "2011": "128.29",
    "2012": "118.13",
    "2013": "116.85",
    "2014": "137.87",
    "2015": "131.41",
    "2016": "136.81",
    "2017": "165.81"
  },
  "MK Pandey": {
    "2008": "33.33",
    "2009": "142.74",
    "2010": "110.22",
    "2011": "108.37",
    "2012": "125.45",
    "2013": "99.27",
    "2014": "119.24",
    "2015": "122.28",
    "2016": "135.52",
    "2017": "128.20"
  },
  "YK Pathan": {
    "2008": "179.92",
    "2009": "139.57",
    "2010": "166.00",
    "2011": "141.50",
    "2012": "115.06",
    "2013": "138.49",
    "2014": "162.42",
    "2015": "135.37",
    "2016": "145.56",
    "2017": "125.44"
  },
  "SA Yadav": {
    "2012": "0.00",
    "2014": "139.13",
    "2015": "138.94",
    "2016": "127.66",
    "2017": "119.54"
  },
  "CR Woakes": {
    "2017": "100.00"
  },
  "SP Narine": {
    "2012": "128.57",
    "2013": "110.53",
    "2014": "71.43",
    "2015": 0,
    "2016": "53.85",
    "2017": "172.87"
  },
  "Harbhajan Singh": {
    "2008": "176.47",
    "2009": "158.49",
    "2010": "161.67",
    "2011": "145.07",
    "2012": "135.00",
    "2013": "146.84",
    "2014": "112.00",
    "2015": "161.11",
    "2016": "109.52",
    "2017": "100.00"
  },
  "AB de Villiers": {
    "2008": "96.94",
    "2009": "129.66",
    "2010": "93.28",
    "2011": "126.45",
    "2012": "161.42",
    "2013": "167.26",
    "2014": "156.85",
    "2015": "175.60",
    "2016": "168.40",
    "2017": "130.86"
  },
  "CJ Anderson": {
    "2014": "146.41",
    "2015": "118.75",
    "2017": "117.36"
  },
  "F du Plessis": {
    "2012": "131.02",
    "2014": "128.94",
    "2015": "125.00",
    "2016": "127.16",
    "2017": "116.67"
  },
  "RA Tripathi": {
    "2017": "145.49"
  },
  "R Bhatia": {
    "2008": "121.43",
    "2009": "44.44",
    "2010": "141.18",
    "2011": "113.64",
    "2012": "125.00",
    "2013": "123.75",
    "2014": "126.42",
    "2015": 0,
    "2016": "170.00",
    "2017": "93.75"
  },
  "DL Chahar": {
    "2017": "280.00"
  },
  "A Zampa": {
    "2016": 0,
    "2017": "83.33"
  },
  "AB Dinda": {
    "2008": "50.00",
    "2009": "66.67",
    "2010": 0,
    "2011": "0.00",
    "2012": "40.00",
    "2013": "81.82",
    "2014": "33.33",
    "2017": "116.67"
  },
  "Imran Tahir": {
    "2014": "80.00",
    "2015": "83.33",
    "2016": "71.43",
    "2017": 0
  },
  "NV Ojha": {
    "2009": "116.67",
    "2010": "132.86",
    "2011": "99.38",
    "2012": "112.56",
    "2013": "90.00",
    "2014": "141.25",
    "2015": "114.17",
    "2016": "98.55",
    "2017": "121.88"
  },
  "V Shankar": {
    "2017": "135.14"
  },
  "Rashid Khan": {
    "2017": "125.00"
  },
  "B Kumar": {
    "2011": 0,
    "2012": "100.00",
    "2013": "73.24",
    "2014": "25.00",
    "2015": "170.00",
    "2016": "159.26",
    "2017": "100.00"
  },
  "MP Stoinis": {
    "2016": "135.19",
    "2017": "73.91"
  },
  "MM Sharma": {
    "2013": "0.00",
    "2014": "33.33",
    "2015": "155.56",
    "2016": "123.08",
    "2017": "102.04"
  },
  "VR Aaron": {
    "2011": "0.00",
    "2012": "33.33",
    "2014": "103.03",
    "2015": "200.00",
    "2017": "33.33"
  },
  "V Kohli": {
    "2008": "105.10",
    "2009": "112.33",
    "2010": "145.02",
    "2011": "121.35",
    "2012": "112.00",
    "2013": "140.09",
    "2014": "122.11",
    "2015": "130.83",
    "2016": "151.65",
    "2017": "122.31"
  },
  "MJ McClenaghan": {
    "2015": "216.67",
    "2016": "147.83",
    "2017": "114.29"
  },
  "Ankit Sharma": {
    "2012": "138.46",
    "2014": "113.33",
    "2015": "116.67",
    "2016": "100.00",
    "2017": "178.57"
  },
  "SN Thakur": {
    "2015": "116.67",
    "2017": "0.00"
  },
  "RD Chahar": {
    "2017": 0
  },
  "LH Ferguson": {},
  "C de Grandhomme": {
    "2017": "138.46"
  },
  "Bipul Sharma": {
    "2010": "128.57",
    "2011": "127.78",
    "2012": "153.19",
    "2015": "50.00",
    "2016": "204.00",
    "2017": "134.78"
  },
  "SS Iyer": {
    "2015": "128.36",
    "2016": "69.77",
    "2017": "139.83"
  },
  "EJG Morgan": {
    "2010": "116.67",
    "2011": "117.09",
    "2013": "127.92",
    "2015": "123.84",
    "2016": "117.14",
    "2017": "106.56"
  },
  "KC Cariappa": {
    "2016": "118.18",
    "2017": "16.67"
  },
  "Sandeep Sharma": {
    "2013": 0,
    "2014": "40.00",
    "2015": "64.29",
    "2016": "88.89",
    "2017": "125.00"
  },
  "Ishan Kishan": {
    "2016": "102.44",
    "2017": "135.78"
  },
  "JD Unadkat": {
    "2013": "100.00",
    "2014": "16.67",
    "2017": "50.00"
  },
  "AF Milne": {
    "2017": "54.55"
  },
  "S Badree": {
    "2017": "59.09"
  },
  "AD Mathews": {
    "2009": "123.08",
    "2010": "126.78",
    "2012": "117.59",
    "2013": "123.74",
    "2015": "138.83",
    "2017": "119.23"
  },
  "Mohammed Shami": {
    "2013": "50.00",
    "2014": "42.86",
    "2016": "50.00",
    "2017": "156.52"
  },
  "Mohammad Nabi": {
    "2017": "100.00"
  },
  "I Sharma": {
    "2008": "100.00",
    "2009": "123.08",
    "2010": "35.29",
    "2011": "80.00",
    "2017": "63.64"
  },
  "RA Jadeja": {
    "2008": "134.00",
    "2009": "110.57",
    "2011": "124.23",
    "2012": "126.49",
    "2013": "149.25",
    "2014": "133.94",
    "2015": "104.76",
    "2016": "108.00",
    "2017": "141.07"
  },
  "AJ Tye": {
    "2017": "189.29"
  },
  "KS Williamson": {
    "2015": "114.81",
    "2016": "101.64",
    "2017": "152.10"
  },
  "SE Marsh": {
    "2008": "139.55",
    "2010": "128.95",
    "2011": "145.77",
    "2012": "120.00",
    "2013": "120.48",
    "2014": "134.62",
    "2015": "143.55",
    "2016": "118.66",
    "2017": "135.08"
  },
  "Shakib Al Hasan": {
    "2011": "131.82",
    "2012": "121.92",
    "2014": "149.02",
    "2015": "133.33",
    "2016": "107.55"
  },
  "JP Faulkner": {
    "2012": "107.69",
    "2013": "100.00",
    "2014": "193.55",
    "2015": "132.41",
    "2016": "132.76",
    "2017": "90.91"
  },
  "MG Johnson": {
    "2013": "108.33",
    "2014": "112.00",
    "2015": "86.11",
    "2016": "35.71",
    "2017": "100.00"
  },
  "K Rabada": {
    "2017": "87.30"
  },
  "AD Nath": {
    "2016": "74.07"
  },
  "NM Coulter-Nile": {
    "2013": "150.00",
    "2015": "111.11",
    "2016": "64.29",
    "2017": "118.18"
  },
  "Kuldeep Yadav": {
    "2017": "95.24"
  },
  "UT Yadav": {
    "2010": "75.00",
    "2011": "20.00",
    "2012": "28.57",
    "2013": "100.00",
    "2014": "50.00",
    "2015": "207.14",
    "2016": "180.00",
    "2017": "83.33"
  },
  "Washington Sundar": {
    "2017": "63.64"
  },
  "KV Sharma": {
    "2009": "33.33",
    "2013": "98.84",
    "2014": "144.83",
    "2015": "122.35",
    "2016": "120.00",
    "2017": "117.50"
  },
  "DM Bravo": {
    "2017": "150.00"
  },
  "AR Bawne": {
    "2017": "100.00"
  },
  "SP Jackson": {
    "2017": "123.33"
  },
  "MJ Guptill": {
    "2016": "103.64",
    "2017": "146.51"
  },
  "Anureet Singh": {
    "2015": "58.06",
    "2017": "127.27"
  },
  "IK Pathan": {
    "2008": "113.04",
    "2009": "124.05",
    "2010": "148.39",
    "2011": "109.49",
    "2012": "139.68",
    "2013": "98.71",
    "2014": "101.85",
    "2016": "84.62",
    "2017": "50.00"
  },
  "Ankit Soni": {
    "2017": "75.00"
  },
  "JJ Bumrah": {
    "2014": "33.33",
    "2016": "72.73",
    "2017": "145.45"
  },
  "SL Malinga": {
    "2009": 0,
    "2010": 0,
    "2011": "88.89",
    "2012": "103.77",
    "2013": "50.00",
    "2014": "50.00",
    "2015": "60.00",
    "2017": "350.00"
  },
  "PJ Sangwan": {
    "2008": "40.00",
    "2009": "60.00",
    "2010": "71.43",
    "2013": "200.00",
    "2017": "33.33"
  },
  "S Kaul": {
    "2013": "77.78",
    "2014": "100.00",
    "2017": 0
  },
  "LMP Simmons": {
    "2014": "135.86",
    "2015": "123.29",
    "2016": "100.00",
    "2017": "123.42"
  },
  "MN Samuels": {
    "2012": "100.81",
    "2013": "44.44",
    "2017": "96.67"
  },
  "Swapnil Singh": {
    "2016": 0,
    "2017": "55.56"
  },
  "R Tewatia": {
    "2014": "123.08",
    "2017": "190.00"
  },
  "MM Patel": {
    "2008": 0,
    "2009": "126.92",
    "2010": "80.00",
    "2011": 0,
    "2012": "28.57"
  },
  "SS Tiwary": {
    "2008": "130.00",
    "2009": "108.33",
    "2010": "135.83",
    "2011": "100.54",
    "2012": "113.17",
    "2013": "102.83",
    "2015": "139.74",
    "2016": "121.58",
    "2017": "123.81"
  },
  "TA Boult": {
    "2017": "42.86"
  },
  "CJ Jordan": {
    "2016": "75.00"
  },
  "IR Jaggi": {
    "2011": "75.68",
    "2012": "71.43",
    "2017": "86.84"
  },
  "PP Chawla": {
    "2008": "153.45",
    "2009": "86.11",
    "2010": "105.08",
    "2011": "87.27",
    "2012": "120.45",
    "2013": "112.28",
    "2014": "163.16",
    "2015": "114.89",
    "2016": "103.85",
    "2017": "20.00"
  },
  "AS Rajpoot": {
    "2013": "33.33",
    "2017": "0.00"
  },
  "SC Ganguly": {
    "2008": "114.80",
    "2009": "89.27",
    "2010": "117.94",
    "2011": "86.21",
    "2012": "98.89"
  },
  "RT Ponting": {
    "2008": "75.00",
    "2013": "69.33"
  },
  "DJ Hussey": {
    "2008": "123.74",
    "2009": "163.16",
    "2010": "110.59",
    "2011": "101.59",
    "2012": "129.84",
    "2013": "112.98",
    "2014": "123.40"
  },
  "Mohammad Hafeez": {
    "2008": "78.05"
  },
  "R Dravid": {
    "2008": "124.66",
    "2009": "115.81",
    "2010": "128.64",
    "2011": "109.94",
    "2012": "112.14",
    "2013": "111.08"
  },
  "W Jaffer": {
    "2008": "111.65",
    "2009": "88.24"
  },
  "JH Kallis": {
    "2008": "108.79",
    "2009": "108.76",
    "2010": "115.75",
    "2011": "112.17",
    "2012": "106.81",
    "2013": "96.58",
    "2014": "117.97"
  },
  "CL White": {
    "2008": "110.10",
    "2010": "145.45",
    "2011": "95.41",
    "2012": "148.90",
    "2013": "115.31"
  },
  "MV Boucher": {
    "2008": "127.84",
    "2009": "125.44",
    "2010": "130.00",
    "2011": "100.00"
  },
  "B Akhil": {
    "2008": "153.33",
    "2009": "113.33",
    "2011": "144.44"
  },
  "AA Noffke": {
    "2008": "100.00"
  },
  "SB Joshi": {
    "2008": "38.46"
  },
  "ML Hayden": {
    "2008": "142.06",
    "2009": "145.29",
    "2010": "124.01"
  },
  "MEK Hussey": {
    "2008": "168.69",
    "2010": "84.09",
    "2011": "119.13",
    "2012": "110.59",
    "2013": "129.56",
    "2014": "114.84",
    "2015": "110.00"
  },
  "JDP Oram": {
    "2008": "163.64",
    "2009": "95.65",
    "2011": "0.00"
  },
  "S Badrinath": {
    "2008": "148.84",
    "2009": "107.93",
    "2010": "117.94",
    "2011": "126.28",
    "2012": "108.29",
    "2013": "103.33"
  },
  "K Goel": {
    "2008": "93.51",
    "2009": "93.23",
    "2010": "90.00"
  },
  "JR Hopes": {
    "2008": "150.34",
    "2011": "124.84"
  },
  "KC Sangakkara": {
    "2008": "162.24",
    "2009": "103.11",
    "2010": "139.45",
    "2011": "123.02",
    "2012": "106.01",
    "2013": "88.24"
  },
  "SM Katich": {
    "2008": "140.30",
    "2009": "123.93"
  },
  "T Kohli": {
    "2008": "71.43",
    "2009": "25.00"
  },
  "M Kaif": {
    "2008": "104.14",
    "2010": "93.33",
    "2011": "124.24",
    "2012": "87.50"
  },
  "DS Lehmann": {
    "2008": "100.00"
  },
  "M Rawat": {
    "2008": "86.84",
    "2009": "84.21",
    "2013": "45.45"
  },
  "D Salunkhe": {
    "2008": "126.09"
  },
  "SK Warne": {
    "2008": "121.05",
    "2009": "93.10",
    "2010": "52.63",
    "2011": "50.00"
  },
  "SK Trivedi": {
    "2008": "45.45",
    "2009": "52.94",
    "2010": "142.86",
    "2011": "0.00",
    "2012": "83.33",
    "2013": "42.86"
  },
  "V Sehwag": {
    "2008": "183.72",
    "2009": "145.52",
    "2010": "162.21",
    "2011": "177.41",
    "2012": "161.24",
    "2013": "128.38",
    "2014": "144.90",
    "2015": "117.86"
  },
  "L Ronchi": {
    "2008": "109.68",
    "2009": "0.00"
  },
  "ST Jayasuriya": {
    "2008": "165.15",
    "2009": "115.26",
    "2010": "106.45"
  },
  "DJ Thornely": {
    "2008": "75.00"
  },
  "PR Shah": {
    "2008": "100.00",
    "2009": "103.92",
    "2011": "100.00"
  },
  "AM Nayar": {
    "2008": "150.74",
    "2009": "126.49",
    "2010": "113.73",
    "2011": "90.91",
    "2012": "91.84",
    "2013": "90.41",
    "2014": "84.78"
  },
  "SM Pollock": {
    "2008": "130.00"
  },
  "S Chanderpaul": {
    "2008": "83.33"
  },
  "LRPL Taylor": {
    "2008": "185.00",
    "2009": "133.01",
    "2010": "117.33",
    "2011": "120.00",
    "2012": "115.20",
    "2013": "82.89",
    "2014": "100.00"
  },
  "AC Gilchrist": {
    "2008": "137.38",
    "2009": "150.93",
    "2010": "156.22",
    "2011": "129.90",
    "2012": "118.31",
    "2013": "128.38"
  },
  "Y Venugopal Rao": {
    "2008": "136.41",
    "2009": "108.77",
    "2010": "79.07",
    "2011": "120.43",
    "2012": "104.76",
    "2014": "112.70"
  },
  "VVS Laxman": {
    "2008": "118.32",
    "2009": "57.58",
    "2010": "106.67",
    "2011": "92.68"
  },
  "A Symonds": {
    "2008": "156.31",
    "2009": "152.15",
    "2010": "126.18",
    "2011": "97.83"
  },
  "SB Styris": {
    "2008": "92.56",
    "2009": "175.00",
    "2011": "250.00"
  },
  "AS Yadav": {
    "2008": "126.32"
  },
  "SB Bangar": {
    "2008": "95.83",
    "2009": "22.22"
  },
  "WPUJC Vaas": {
    "2008": "93.75",
    "2009": "142.86",
    "2010": "88.24"
  },
  "RP Singh": {
    "2008": "113.04",
    "2009": "47.06",
    "2010": "47.37",
    "2011": "50.00",
    "2012": "50.00"
  },
  "LR Shukla": {
    "2008": "133.88",
    "2009": "97.65",
    "2010": "138.46",
    "2011": "140.00",
    "2012": "131.58",
    "2013": "25.00",
    "2014": "81.58"
  },
  "DPMD Jayawardene": {
    "2008": "137.69",
    "2009": "132.73",
    "2010": "148.16",
    "2011": "116.34",
    "2012": "112.42",
    "2013": "106.09"
  },
  "S Sohal": {
    "2008": "57.14",
    "2009": "126.37",
    "2011": "131.05"
  },
  "B Lee": {
    "2008": "154.55",
    "2009": "82.35",
    "2010": "122.22",
    "2011": "55.56",
    "2012": "210.00",
    "2013": "175.00"
  },
  "WA Mota": {
    "2008": "96.15",
    "2009": "62.50"
  },
  "Kamran Akmal": {
    "2008": "163.16"
  },
  "Shahid Afridi": {
    "2008": "180.00"
  },
  "DJ Bravo": {
    "2008": "133.85",
    "2009": "107.96",
    "2010": "115.09",
    "2011": "183.33",
    "2012": "140.08",
    "2013": "114.15",
    "2014": "266.67",
    "2015": "131.76",
    "2016": "120.73"
  },
  "MA Khote": {
    "2008": "104.76"
  },
  "A Nehra": {
    "2008": "18.18",
    "2009": 0,
    "2010": "115.79",
    "2012": "91.67",
    "2013": "12.50",
    "2015": "14.29",
    "2016": 0
  },
  "GC Smith": {
    "2008": "121.39",
    "2009": "97.65",
    "2010": "112.82",
    "2011": "82.35"
  },
  "Pankaj Singh": {
    "2008": "57.14",
    "2009": "50.00",
    "2010": "50.00"
  },
  "RR Sarwan": {
    "2008": "98.65"
  },
  "S Sreesanth": {
    "2008": "0.00",
    "2009": "27.78",
    "2010": "128.57",
    "2011": "11.11",
    "2013": "25.00"
  },
  "VRV Singh": {
    "2008": "0.00"
  },
  "R Vinay Kumar": {
    "2008": "114.29",
    "2009": "106.82",
    "2010": "84.38",
    "2011": "106.38",
    "2012": "109.68",
    "2013": "159.09",
    "2014": "66.67",
    "2015": "0.00",
    "2016": "108.33"
  },
  "AB Agarkar": {
    "2008": "113.64",
    "2009": "115.79",
    "2010": "139.29",
    "2011": "120.00",
    "2013": "75.00"
  },
  "M Kartik": {
    "2008": "111.54",
    "2009": "105.00",
    "2010": "100.00",
    "2011": "78.57",
    "2012": "123.81",
    "2013": "66.67"
  },
  "Shoaib Malik": {
    "2008": "104.44"
  },
  "MF Maharoof": {
    "2008": "158.97",
    "2009": "100.00",
    "2010": "134.78"
  },
  "VY Mahesh": {
    "2008": "50.00"
  },
  "TM Srivastava": {
    "2008": "88.89",
    "2009": 0
  },
  "B Chipli": {
    "2008": "70.37",
    "2011": "121.76",
    "2012": "105.71",
    "2013": "94.12"
  },
  "DW Steyn": {
    "2008": "25.00",
    "2009": "0.00",
    "2010": "76.47",
    "2011": "102.86",
    "2012": "90.48",
    "2013": "147.22",
    "2014": "84.62",
    "2015": "153.85",
    "2016": "50.00"
  },
  "DB Das": {
    "2008": "110.75",
    "2012": "136.96",
    "2013": "101.35"
  },
  "HH Gibbs": {
    "2008": "109.21",
    "2009": "112.42",
    "2010": "114.10",
    "2012": "92.05"
  },
  "DNT Zoysa": {
    "2008": "125.00"
  },
  "D Kalyankrishna": {
    "2008": "42.86"
  },
  "SA Asnodkar": {
    "2008": "133.48",
    "2009": "105.38",
    "2010": "125.00",
    "2011": "100.00"
  },
  "Sohail Tanvir": {
    "2008": "125.93"
  },
  "Salman Butt": {
    "2008": "119.50"
  },
  "BJ Hodge": {
    "2008": "75.00",
    "2009": "118.12",
    "2010": "110.00",
    "2011": "121.79",
    "2012": "141.62",
    "2013": "134.56",
    "2014": "140.28"
  },
  "Umar Gul": {
    "2008": "211.11"
  },
  "SP Fleming": {
    "2008": "119.25"
  },
  "S Vidyut": {
    "2008": "130.56"
  },
  "JA Morkel": {
    "2008": "143.48",
    "2009": "138.57",
    "2010": "151.15",
    "2011": "137.00",
    "2012": "157.35",
    "2013": "124.32",
    "2014": "109.76",
    "2015": "132.31",
    "2016": "177.78"
  },
  "LPC Silva": {
    "2008": "160.00"
  },
  "DB Ravi Teja": {
    "2008": "133.75",
    "2009": "92.86",
    "2011": "127.27",
    "2012": "100.00",
    "2013": "82.35"
  },
  "Misbah-ul-Haq": {
    "2008": "146.25"
  },
  "YV Takawale": {
    "2008": "109.52",
    "2009": "81.82",
    "2014": "114.29"
  },
  "RR Raje": {
    "2008": "87.50",
    "2009": "133.33"
  },
  "Mohammad Asif": {
    "2008": "60.00"
  },
  "GD McGrath": {
    "2008": "100.00"
  },
  "Joginder Sharma": {
    "2008": "160.00",
    "2009": "111.11",
    "2011": 0
  },
  "MS Gony": {
    "2008": "166.67",
    "2009": "185.71",
    "2010": "33.33",
    "2011": "0.00",
    "2012": "50.00",
    "2013": "180.00"
  },
  "M Muralitharan": {
    "2008": "0.00",
    "2009": "100.00",
    "2010": "50.00",
    "2011": "71.43",
    "2012": "66.67"
  },
  "M Ntini": {
    "2008": "64.71"
  },
  "DT Patil": {
    "2008": "75.00"
  },
  "A Kumble": {
    "2008": "81.25",
    "2009": "84.21",
    "2010": "54.55"
  },
  "S Anirudha": {
    "2008": "16.67",
    "2010": "166.67",
    "2011": "112.16",
    "2012": "316.67",
    "2013": "0.00",
    "2014": "60.00"
  },
  "CK Kapugedera": {
    "2008": "71.43"
  },
  "A Chopra": {
    "2008": "82.35",
    "2009": "57.89"
  },
  "T Taibu": {
    "2008": "116.00"
  },
  "J Arunkumar": {
    "2008": "104.55"
  },
  "PP Ojha": {
    "2008": "33.33",
    "2009": "14.29",
    "2010": "37.50",
    "2012": "30.77",
    "2013": "50.00",
    "2014": "50.00"
  },
  "SP Goswami": {
    "2008": "96.43",
    "2009": "88.33",
    "2010": "80.00",
    "2011": "100.00",
    "2012": "102.99"
  },
  "SR Tendulkar": {
    "2008": "106.25",
    "2009": "121.40",
    "2010": "133.05",
    "2011": "113.32",
    "2012": "114.49",
    "2013": "124.24"
  },
  "U Kaul": {},
  "TM Dilshan": {
    "2008": "131.17",
    "2009": "122.12",
    "2010": "83.02",
    "2011": "125.56",
    "2012": "106.95",
    "2013": "81.52"
  },
  "AD Mascarenhas": {
    "2008": "114.29",
    "2009": "100.00",
    "2010": "120.00",
    "2012": "87.50",
    "2013": "100.00"
  },
  "Niraj Patel": {
    "2008": "128.75",
    "2009": "47.37"
  },
  "LA Pomersbach": {
    "2008": "155.10",
    "2009": "86.96",
    "2011": "130.77",
    "2013": "98.31"
  },
  "Younis Khan": {
    "2008": "33.33"
  },
  "PM Sarvesh Kumar": {
    "2008": 0
  },
  "DP Vijaykumar": {},
  "Shoaib Akhtar": {
    "2008": "33.33"
  },
  "Abdur Razzak": {
    "2008": 0
  },
  "H Das": {
    "2008": "50.00"
  },
  "SD Chitnis": {
    "2008": "125.00",
    "2009": "75.00",
    "2011": "100.00",
    "2012": "106.45"
  },
  "CRD Fernando": {
    "2010": "100.00"
  },
  "VS Yeligati": {
    "2008": 0
  },
  "L Balaji": {
    "2008": "0.00",
    "2009": "40.00",
    "2010": "90.00",
    "2011": "200.00",
    "2013": "90.00",
    "2014": "33.33"
  },
  "A Mukund": {
    "2013": "90.48"
  },
  "RR Powar": {
    "2008": "140.00",
    "2009": "104.55",
    "2010": "62.50",
    "2011": "84.62"
  },
  "JP Duminy": {
    "2009": "114.51",
    "2010": "119.85",
    "2011": "117.92",
    "2012": "128.42",
    "2014": "135.10",
    "2015": "131.43",
    "2016": "123.23"
  },
  "A Flintoff": {
    "2009": "119.23"
  },
  "T Thushara": {
    "2009": "33.33",
    "2010": "90.91"
  },
  "JD Ryder": {
    "2009": "119.15",
    "2011": "146.94",
    "2012": "119.43"
  },
  "KP Pietersen": {
    "2009": "110.84",
    "2010": "150.32",
    "2012": "147.34",
    "2014": "126.18",
    "2016": "119.67"
  },
  "T Henderson": {
    "2009": "78.57"
  },
  "Kamran Khan": {
    "2009": "75.00"
  },
  "RS Bopara": {
    "2009": "116.95",
    "2010": "115.89",
    "2015": "120.83"
  },
  "R Bishnoi": {
    "2009": "118.75"
  },
  "FH Edwards": {
    "2009": "100.00"
  },
  "PC Valthaty": {
    "2009": "45.45",
    "2011": "136.83",
    "2012": "58.82",
    "2013": "35.29"
  },
  "RJ Quiney": {
    "2009": "96.04"
  },
  "AS Raut": {
    "2009": "130.00",
    "2010": "116.67",
    "2011": "103.45"
  },
  "Yashpal Singh": {
    "2009": "73.44"
  },
  "M Manhas": {
    "2009": "122.95",
    "2010": "105.37",
    "2011": "92.68",
    "2012": "125.00",
    "2013": "76.47",
    "2014": "152.17"
  },
  "AA Bilakhia": {
    "2009": "84.81",
    "2010": "50.00"
  },
  "AN Ghosh": {
    "2009": "100.00"
  },
  "BAW Mendis": {
    "2010": 0,
    "2013": "50.00"
  },
  "DL Vettori": {
    "2009": "110.00",
    "2010": "122.22",
    "2011": "82.14",
    "2012": "119.23"
  },
  "MN van Wyk": {
    "2009": "124.62"
  },
  "RE van der Merwe": {
    "2009": "125.77",
    "2010": "50.00",
    "2011": "87.50",
    "2013": "88.00"
  },
  "TL Suman": {
    "2009": "124.87",
    "2010": "120.39",
    "2011": "127.45",
    "2012": "78.95",
    "2013": "89.66"
  },
  "Shoaib Ahmed": {
    "2009": "20.00"
  },
  "GR Napier": {
    "2009": "93.33"
  },
  "KP Appanna": {
    "2010": "66.67"
  },
  "LA Carseldine": {
    "2009": "120.00"
  },
  "SM Harwood": {
    "2009": "66.67"
  },
  "M Vijay": {
    "2009": "90.91",
    "2010": "156.85",
    "2011": "128.02",
    "2012": "126.79",
    "2013": "109.09",
    "2014": "107.81",
    "2015": "110.09",
    "2016": "124.45"
  },
  "SB Jakati": {
    "2009": "128.57",
    "2012": "58.33",
    "2016": "50.00"
  },
  "RJ Harris": {
    "2009": "117.65",
    "2010": "115.38",
    "2011": "78.95",
    "2012": "163.64",
    "2013": "40.00"
  },
  "D du Preez": {
    "2009": "75.00"
  },
  "M Morkel": {
    "2009": "114.29",
    "2010": "56.25",
    "2011": "150.00",
    "2012": "60.00",
    "2013": "196.55",
    "2014": "133.33",
    "2015": "133.33",
    "2016": 0
  },
  "J Botha": {
    "2009": "118.42",
    "2011": "116.16",
    "2012": "107.41",
    "2013": "82.69",
    "2015": "206.67"
  },
  "C Nanda": {},
  "Mashrafe Mortaza": {
    "2009": 0
  },
  "A Singh": {
    "2009": "50.00",
    "2011": "25.00",
    "2012": "0.00"
  },
  "GJ Bailey": {
    "2009": "118.42",
    "2010": "66.67",
    "2014": "135.11",
    "2015": "136.32",
    "2016": "86.60"
  },
  "AB McDonald": {
    "2009": "66.67",
    "2010": "125.00",
    "2011": "114.29",
    "2012": "134.29",
    "2013": "0.00"
  },
  "Y Nagar": {
    "2009": "100.00",
    "2010": "16.67",
    "2011": "111.00",
    "2012": "115.04"
  },
  "SS Shaikh": {
    "2009": "100.00"
  },
  "R Ashwin": {
    "2009": "57.14",
    "2010": "75.00",
    "2011": "33.33",
    "2012": "120.00",
    "2013": "71.43",
    "2014": "100.00",
    "2015": "162.50",
    "2016": "107.89"
  },
  "Mohammad Ashraful": {
    "2009": "22.22"
  },
  "CA Pujara": {
    "2010": "107.02",
    "2011": "109.68",
    "2012": "77.27",
    "2013": "92.93",
    "2014": "101.63"
  },
  "OA Shah": {
    "2010": "122.34",
    "2011": "173.33",
    "2012": "132.94",
    "2013": "108.70"
  },
  "Anirudh Singh": {
    "2010": "95.38"
  },
  "Jaskaran Singh": {
    "2010": "80.00"
  },
  "R Sathish": {
    "2010": "117.89",
    "2011": "73.53",
    "2013": "142.11",
    "2016": "100.00"
  },
  "R McLaren": {
    "2010": "95.59",
    "2011": "93.75",
    "2013": "50.00"
  },
  "AA Jhunjhunwala": {
    "2010": "110.91",
    "2011": "58.82",
    "2012": "92.31"
  },
  "P Dogra": {
    "2010": "100.95",
    "2012": "62.50",
    "2013": "62.50"
  },
  "A Uniyal": {
    "2010": "66.67"
  },
  "MS Bisla": {
    "2010": "121.59",
    "2011": "80.90",
    "2012": "133.13",
    "2013": "108.51",
    "2014": "33.33",
    "2015": "123.33"
  },
  "YA Abdulla": {},
  "JM Kemp": {
    "2010": "108.70"
  },
  "S Tyagi": {
    "2010": "66.67"
  },
  "RS Gavaskar": {
    "2010": "28.57"
  },
  "SE Bond": {
    "2010": 0
  },
  "S Ladda": {
    "2010": "0.00"
  },
  "DP Nannes": {
    "2010": "33.33"
  },
  "MJ Lumb": {
    "2010": "147.87",
    "2011": "0.00"
  },
  "DR Martyn": {
    "2010": "78.26"
  },
  "S Narwal": {
    "2010": "127.27",
    "2013": "153.33"
  },
  "AB Barath": {
    "2010": "100.00"
  },
  "FY Fazal": {
    "2010": "107.89",
    "2011": "100.00"
  },
  "AC Voges": {
    "2010": "124.65"
  },
  "MD Mishra": {
    "2010": "116.31",
    "2011": "111.67",
    "2012": "100.00"
  },
  "J Theron": {
    "2010": "50.00",
    "2012": "116.67",
    "2015": 0
  },
  "SJ Srivastava": {
    "2010": 0,
    "2011": "133.33"
  },
  "R Sharma": {
    "2010": "108.00",
    "2011": "114.29",
    "2012": "18.18",
    "2013": "64.71"
  },
  "SW Tait": {
    "2010": "91.67",
    "2011": "100.00",
    "2013": "33.33"
  },
  "KB Arun Karthik": {
    "2010": "50.00",
    "2011": "87.50",
    "2013": "107.89"
  },
  "KAJ Roach": {
    "2010": "75.00"
  },
  "PD Collingwood": {
    "2010": "130.97"
  },
  "CK Langeveldt": {
    "2011": "100.00"
  },
  "VS Malik": {
    "2010": "150.00",
    "2014": "50.00"
  },
  "A Mithun": {
    "2010": "166.67",
    "2011": "135.00",
    "2013": "100.00"
  },
  "AP Dole": {
    "2010": "161.90"
  },
  "AN Ahmed": {
    "2010": "66.67",
    "2011": "138.46",
    "2014": 0,
    "2015": "200.00"
  },
  "RS Sodhi": {
    "2010": 0
  },
  "DE Bollinger": {
    "2010": "120.00",
    "2011": 0,
    "2012": "60.00"
  },
  "S Sriram": {
    "2010": "92.86",
    "2011": "57.14"
  },
  "B Sumanth": {
    "2010": "91.67"
  },
  "C Madan": {
    "2010": "58.82"
  },
  "AG Paunikar": {
    "2011": "88.89"
  },
  "MR Marsh": {
    "2010": "96.55",
    "2011": "102.04",
    "2013": "132.08",
    "2016": "63.64"
  },
  "Harmeet Singh": {
    "2012": "214.29",
    "2013": "75.00"
  },
  "RV Gomez": {
    "2011": "93.88",
    "2013": 0
  },
  "AUK Pathan": {
    "2011": "193.33",
    "2012": "85.71"
  },
  "UBT Chand": {
    "2011": "18.18",
    "2012": "105.88",
    "2013": "100.64",
    "2014": "22.22",
    "2015": "122.89",
    "2016": "0.00"
  },
  "DJ Jacobs": {
    "2011": "105.75",
    "2012": "0.00"
  },
  "Sunny Singh": {
    "2011": "130.00"
  },
  "NJ Rimmington": {},
  "AL Menaria": {
    "2011": "119.21",
    "2012": "107.00",
    "2013": "50.00"
  },
  "WD Parnell": {
    "2011": "97.37",
    "2012": "70.37",
    "2013": "71.43",
    "2014": "100.00"
  },
  "JJ van der Wath": {
    "2011": "120.00"
  },
  "R Ninan": {
    "2011": "50.00"
  },
  "MS Wade": {
    "2011": "68.75"
  },
  "TD Paine": {
    "2011": "40.00"
  },
  "SB Wagh": {
    "2011": "0.00"
  },
  "AC Thomas": {
    "2011": "33.33",
    "2012": "126.67"
  },
  "JEC Franklin": {
    "2011": "138.96",
    "2012": "99.10"
  },
  "DH Yagnik": {
    "2011": "55.00",
    "2012": "192.31",
    "2013": "133.33",
    "2014": "66.67"
  },
  "S Randiv": {
    "2011": "66.67"
  },
  "BJ Haddin": {
    "2011": "180.00"
  },
  "NLTC Perera": {
    "2011": "88.46",
    "2012": "44.44",
    "2013": "142.94",
    "2015": "80.00",
    "2016": "161.96"
  },
  "NL McCullum": {
    "2011": "123.81"
  },
  "JE Taylor": {
    "2011": "50.00"
  },
  "J Syed Mohammad": {
    "2011": "136.36",
    "2012": 0,
    "2013": "76.92"
  },
  "RN ten Doeschate": {
    "2011": "147.22",
    "2012": "100.00",
    "2013": "134.92",
    "2014": "157.58",
    "2015": "135.56"
  },
  "TR Birt": {
    "2011": "133.93"
  },
  "AG Murtaza": {
    "2011": "25.00",
    "2012": "60.00",
    "2013": "125.00"
  },
  "Harpreet Singh": {
    "2011": "68.42",
    "2012": "100.00"
  },
  "M Klinger": {
    "2011": "97.30"
  },
  "AC Blizzard": {
    "2011": "138.37",
    "2012": "0.00"
  },
  "I Malhotra": {
    "2011": "200.00"
  },
  "L Ablish": {
    "2011": 0
  },
  "CA Ingram": {
    "2011": "83.33"
  },
  "P Parameswaran": {
    "2012": 0
  },
  "CJ Ferguson": {
    "2011": "90.57",
    "2012": "79.37"
  },
  "AA Chavan": {
    "2011": "50.00",
    "2012": "137.50"
  },
  "ND Doshi": {
    "2011": "0.00"
  },
  "Y Gnaneswara Rao": {
    "2011": "112.50"
  },
  "S Rana": {
    "2011": "114.29",
    "2014": "110.94"
  },
  "BA Bhatt": {
    "2011": "0.00",
    "2012": "300.00"
  },
  "RE Levi": {
    "2012": "115.28"
  },
  "KK Cooper": {
    "2012": "172.22",
    "2013": "177.27",
    "2014": "150.00"
  },
  "HV Patel": {
    "2012": "107.14",
    "2014": "185.71",
    "2015": "158.33"
  },
  "DAJ Bracewell": {
    "2012": "150.00"
  },
  "DJ Harris": {
    "2012": "107.00"
  },
  "GB Hogg": {
    "2012": "100.00",
    "2015": "116.67"
  },
  "RR Bhatkal": {
    "2012": 0
  },
  "CJ McKay": {
    "2012": "57.14"
  },
  "N Saini": {
    "2012": "99.28"
  },
  "Azhar Mahmood": {
    "2012": "131.21",
    "2013": "127.27",
    "2015": "85.71"
  },
  "RJ Peterson": {
    "2012": "96.55"
  },
  "KMDN Kulasekara": {
    "2012": "50.00"
  },
  "A Ashish Reddy": {
    "2012": "125.00",
    "2013": "140.45",
    "2015": "158.70",
    "2016": "162.07"
  },
  "V Pratap Singh": {},
  "BB Samantray": {
    "2012": 0,
    "2013": "110.81"
  },
  "MJ Clarke": {
    "2012": "104.30"
  },
  "Gurkeerat Singh": {
    "2012": "166.67",
    "2013": "113.68",
    "2015": "89.74",
    "2016": "131.40"
  },
  "AP Majumdar": {
    "2012": "116.00"
  },
  "PA Reddy": {
    "2012": "124.14",
    "2013": "90.10"
  },
  "K Upadhyay": {
    "2012": "128.57",
    "2013": 0
  },
  "P Awana": {
    "2012": "100.00",
    "2013": "11.11"
  },
  "AD Russell": {
    "2012": "164.00",
    "2013": "78.57",
    "2014": "25.00",
    "2015": "192.90",
    "2016": "164.91"
  },
  "A Chandila": {
    "2013": "66.67"
  },
  "Sunny Gupta": {},
  "MC Juneja": {
    "2013": "97.64"
  },
  "GH Vihari": {
    "2013": "86.23",
    "2015": "111.76"
  },
  "MDKJ Perera": {
    "2013": "116.67"
  },
  "R Shukla": {
    "2013": 0,
    "2014": "85.71"
  },
  "B Laughlin": {
    "2013": "50.00"
  },
  "BMAJ Mendis": {
    "2013": "88.46"
  },
  "R Rampaul": {
    "2013": "105.71",
    "2014": "100.00"
  },
  "SMSM Senanayake": {
    "2013": "60.00"
  },
  "BJ Rohrer": {
    "2013": "137.86"
  },
  "KL Rahul": {
    "2013": "133.33",
    "2014": "101.22",
    "2015": "113.71",
    "2016": "146.49"
  },
  "Q de Kock": {
    "2013": "42.86",
    "2014": "117.69",
    "2015": "158.44",
    "2016": "136.20"
  },
  "R Dhawan": {
    "2013": "105.00",
    "2014": "109.33",
    "2015": "109.09",
    "2016": "233.33"
  },
  "LJ Wright": {
    "2013": "168.97"
  },
  "IC Pandey": {
    "2013": 0
  },
  "CM Gautam": {
    "2013": "133.33",
    "2014": "110.00",
    "2015": "80.00"
  },
  "X Thalaivan Sargunam": {
    "2013": "62.50"
  },
  "DJG Sammy": {
    "2013": "129.77",
    "2014": "118.68",
    "2015": "72.22"
  },
  "KW Richardson": {
    "2013": "97.14",
    "2014": "50.00",
    "2016": 0
  },
  "UA Birla": {
    "2013": "46.15"
  },
  "Parvez Rasool": {
    "2013": "62.50",
    "2015": "100.00",
    "2016": "111.11"
  },
  "PV Tambe": {
    "2013": "60.00",
    "2014": "55.56",
    "2015": "60.00",
    "2016": "38.89"
  },
  "NJ Maddinson": {
    "2014": "92.31",
    "2015": "57.14"
  },
  "JDS Neesham": {
    "2014": "93.33"
  },
  "MA Starc": {
    "2014": "100.00",
    "2015": "78.57"
  },
  "BR Dunk": {
    "2014": "117.65"
  },
  "RR Rossouw": {
    "2014": "97.50",
    "2015": "140.00"
  },
  "Shivam Sharma": {
    "2014": "50.00"
  },
  "VH Zol": {
    "2014": "116.00"
  },
  "BE Hendricks": {
    "2015": "50.00"
  },
  "S Gopal": {
    "2014": "111.11",
    "2015": 0,
    "2016": "12.50"
  },
  "M de Lange": {
    "2014": 0
  },
  "JO Holder": {
    "2014": "145.45",
    "2016": "115.79"
  },
  "Karanveer Singh": {
    "2015": "68.75"
  },
  "SA Abbott": {
    "2015": "125.00"
  },
  "J Suchith": {
    "2015": "154.84"
  },
  "RG More": {
    "2015": 0
  },
  "D Wiese": {
    "2015": "144.05",
    "2016": "125.00"
  },
  "SN Khan": {
    "2015": "159.42",
    "2016": "212.90"
  },
  "DJ Muthuswami": {
    "2015": "0.00"
  },
  "C Munro": {
    "2016": "100.00"
  },
  "P Sahu": {
    "2016": "158.33"
  },
  "KJ Abbott": {
    "2016": "157.14"
  },
  "M Ashwin": {},
  "NS Naik": {
    "2016": "70.00"
  },
  "PSP Handscomb": {
    "2016": "54.55"
  },
  "J Yadav": {
    "2016": "66.67"
  },
  "UT Khawaja": {
    "2016": "128.57"
  },
  "F Behardien": {
    "2016": "83.33"
  },
  "BB Sran": {
    "2016": "100.00"
  },
  "S Kaushik": {},
  "ER Dwivedi": {
    "2016": "153.85"
  }
}